{
    "code": "InvalidParameterException",
    "name": "InvalidParameterException",
    "message": "2 validation errors detected: Value at 'previousPassword' failed to satisfy constraint: Member must have length greater than or equal to 6; Value at 'proposedPassword' failed to satisfy constraint: Member must have length greater than or equal to 6"
}
