{
    "code": "InvalidParameterException",
    "name": "InvalidParameterException",
    "message": "6 validation errors detected: Value at 'password' failed to satisfy constraint: Member must satisfy regular expression pattern: ^[S]+.*[S]+$; Value at 'password' failed to satisfy constraint: Member must have length greater than or equal to 6; Value '' at 'userAttributes.1.member.name' failed to satisfy constraint: Member must satisfy regular expression pattern: [p{L}p{M}p{S}p{N}p{P}]+; Value '' at 'userAttributes.1.member.name' failed to satisfy constraint: Member must have length greater than or equal to 1; Value at 'username' failed to satisfy constraint: Member must satisfy regular expression pattern: [p{L}p{M}p{S}p{N}p{P}]+; Value at 'username' failed to satisfy constraint: Member must have length greater than or equal to 1"
}
