{
    "user": {
        "username": "test2@donsuhr.com",
        "pool": {
            "userPoolId": "us-west-2_pNGGg6b29",
            "clientId": "6apdmj0k1a97edq1a9nmvs01f6",
            "client": {
                "endpoint": "https://cognito-idp.us-west-2.amazonaws.com/",
                "userAgent": "aws-amplify/0.1.x js"
            },
            "advancedSecurityDataCollectionFlag": true,
            "storage": {
                "LS_KEY_SIGNUP_EMAIL": "test2@donsuhr.com",
                "loglevel:webpack-dev-server": "INFO",
                "provider-toggles": "[{\"id\":2,\"enabled\":true},{\"id\":7,\"enabled\":true},{\"id\":8,\"enabled\":true},{\"id\":9,\"enabled\":true},{\"id\":10,\"enabled\":true},{\"id\":15,\"enabled\":true},{\"id\":31,\"enabled\":true},{\"id\":43,\"enabled\":true},{\"id\":192,\"enabled\":true}]"
            }
        },
        "Session": null,
        "client": {
            "endpoint": "https://cognito-idp.us-west-2.amazonaws.com/",
            "userAgent": "aws-amplify/0.1.x js"
        },
        "signInUserSession": null,
        "authenticationFlowType": "USER_SRP_AUTH",
        "storage": {
            "LS_KEY_SIGNUP_EMAIL": "test2@donsuhr.com",
            "loglevel:webpack-dev-server": "INFO",
            "provider-toggles": "[{\"id\":2,\"enabled\":true},{\"id\":7,\"enabled\":true},{\"id\":8,\"enabled\":true},{\"id\":9,\"enabled\":true},{\"id\":10,\"enabled\":true},{\"id\":15,\"enabled\":true},{\"id\":31,\"enabled\":true},{\"id\":43,\"enabled\":true},{\"id\":192,\"enabled\":true}]"
        },
        "keyPrefix": "CognitoIdentityServiceProvider.6apdmj0k1a97edq1a9nmvs01f6",
        "userDataKey": "CognitoIdentityServiceProvider.6apdmj0k1a97edq1a9nmvs01f6.test2@donsuhr.com.userData"
    },
    "userConfirmed": false,
    "userSub": "647204b8-e2ab-4424-b780-525ce41cdb70"
}
