<?xml version="1.0" standalone="no"?>
<!DOCTYPE svg PUBLIC "-//W3C//DTD SVG 20010904//EN"
 "http://www.w3.org/TR/2001/REC-SVG-20010904/DTD/svg10.dtd">
<svg version="1.0" xmlns="http://www.w3.org/2000/svg"
 width="696.000000pt" height="696.000000pt" viewBox="0 0 696.000000 696.000000"
 preserveAspectRatio="xMidYMid meet">
<metadata>
Created by potrace 1.11, written by Peter Selinger 2001-2013
</metadata>
<g transform="translate(0.000000,696.000000) scale(0.100000,-0.100000)"
fill="#000000" stroke="none">
<path d="M1263 6889 c-18 -39 -33 -77 -33 -84 0 -7 -6 -18 -14 -24 -8 -7 -17
-23 -20 -37 -4 -14 -22 -58 -40 -97 -18 -40 -56 -126 -86 -192 -29 -66 -65
-147 -80 -180 -16 -33 -42 -93 -60 -134 -17 -40 -46 -105 -65 -145 -18 -39
-45 -99 -59 -134 -15 -34 -39 -91 -55 -125 -61 -133 -79 -175 -111 -247 -54
-125 -90 -204 -106 -232 -8 -15 -15 -30 -15 -33 0 -6 -25 -66 -71 -165 -19
-41 -40 -91 -48 -110 -7 -19 -20 -44 -27 -55 -7 -11 -13 -27 -13 -37 0 -10 -4
-18 -10 -18 -5 0 -10 -6 -10 -14 0 -7 -18 -53 -41 -102 -22 -49 -47 -105 -56
-124 -8 -19 -21 -48 -29 -64 -8 -16 -14 -35 -14 -43 0 -7 -4 -13 -10 -13 -5 0
-10 -6 -10 -14 0 -8 -18 -54 -41 -103 -23 -48 -48 -106 -57 -128 -8 -22 -21
-49 -29 -60 -11 -16 -13 -377 -13 -2057 0 -1120 3 -2039 8 -2041 4 -3 47 -8
97 -11 159 -12 193 -15 360 -31 28 -2 86 -8 130 -11 44 -4 96 -8 115 -9 198
-16 183 -17 323 26 269 83 292 90 310 94 9 2 22 7 28 11 6 3 32 12 57 19 26 7
85 25 132 40 47 14 92 28 100 30 12 3 273 83 328 100 7 3 13 4 15 4 1 0 16 5
32 11 17 7 58 20 93 30 l62 19 0 -159 c0 -182 -11 -165 115 -175 44 -4 103 -9
130 -11 69 -6 158 -13 235 -18 35 -3 91 -8 124 -11 33 -4 80 -9 105 -11 25 -2
79 -6 118 -9 69 -5 83 -2 270 56 109 34 203 62 208 64 6 1 17 5 25 8 8 3 69
22 135 42 66 20 127 39 135 42 8 3 21 7 27 9 7 1 131 39 275 84 145 45 269 84
278 86 8 2 25 6 37 10 21 6 22 5 22 -123 -1 -203 0 -210 14 -210 20 0 179 -14
222 -19 22 -2 76 -6 120 -9 44 -2 80 -5 80 -6 0 -1 14 -2 30 -4 143 -11 216
-17 250 -20 192 -18 177 -19 302 21 65 21 120 38 123 39 3 1 32 9 65 20 33 10
62 19 65 20 13 3 157 47 170 52 18 8 17 7 60 17 19 5 41 12 50 17 8 4 49 18
90 30 41 11 118 35 170 51 52 16 111 34 130 39 19 6 44 14 55 19 11 5 90 29
175 55 85 26 185 56 223 67 l67 21 0 2817 0 2816 -155 110 c-86 60 -164 114
-173 119 -9 6 -19 13 -22 16 -3 3 -27 21 -55 39 -27 19 -51 37 -53 42 -2 4 -8
8 -13 8 -5 0 -53 31 -106 70 -54 38 -105 74 -113 80 -14 10 -122 85 -250 174
-109 76 -155 111 -158 118 -2 5 -8 8 -13 8 -5 0 -28 14 -51 30 l-42 31 -43
-92 c-24 -50 -43 -93 -43 -96 0 -2 -12 -30 -26 -61 -25 -54 -45 -101 -49 -112
-4 -13 -66 -147 -75 -162 -5 -10 -10 -24 -10 -32 0 -7 -7 -19 -15 -26 -8 -7
-15 -18 -15 -25 0 -8 -16 -49 -36 -92 -19 -43 -44 -98 -55 -123 -11 -25 -25
-53 -30 -62 -5 -10 -9 -24 -9 -32 0 -7 -6 -19 -14 -25 -8 -7 -17 -23 -20 -37
-4 -13 -17 -48 -30 -77 -13 -28 -45 -99 -71 -157 -25 -58 -55 -123 -65 -145
-10 -22 -32 -73 -50 -114 -17 -40 -46 -105 -64 -145 -18 -39 -50 -109 -71
-156 -21 -47 -48 -107 -60 -135 -12 -27 -37 -84 -55 -125 -18 -41 -48 -109
-67 -150 -19 -41 -40 -87 -47 -102 -10 -22 -12 118 -11 690 0 394 -1 725 -3
734 -3 13 -517 385 -599 433 -9 6 -28 20 -42 33 -14 12 -32 22 -39 22 -7 0
-15 7 -18 15 -4 8 -11 15 -18 15 -6 0 -23 11 -38 25 -15 14 -29 25 -32 25 -4
0 -107 71 -211 146 -99 71 -208 145 -209 142 -4 -5 -30 -62 -94 -208 -33 -74
-69 -155 -80 -180 -11 -25 -37 -83 -58 -130 -20 -47 -52 -118 -70 -158 -19
-41 -34 -75 -34 -78 0 -2 -15 -37 -34 -77 -39 -85 -153 -337 -174 -387 -8 -19
-30 -68 -48 -108 -19 -41 -34 -75 -34 -77 0 -2 -20 -48 -45 -101 -25 -53 -45
-97 -45 -99 0 -2 -14 -34 -31 -72 -96 -212 -112 -247 -114 -258 -2 -8 -29 -66
-109 -238 -11 -24 -13 81 -12 650 l1 678 -43 28 c-24 15 -52 35 -63 46 -11 10
-32 24 -47 32 -15 8 -29 17 -32 20 -3 3 -149 107 -325 230 -176 123 -322 226
-325 229 -3 3 -12 10 -22 15 -25 15 -321 222 -335 234 -7 6 -13 11 -15 11 -2
0 -18 -32 -35 -71z"/>
</g>
</svg>
